<?xml version="1.0" encoding="UTF-8" standalone="no"?>
<!-- Created with Inkscape (http://www.inkscape.org/) -->

<svg
   xmlns:dc="http://purl.org/dc/elements/1.1/"
   xmlns:cc="http://creativecommons.org/ns#"
   xmlns:rdf="http://www.w3.org/1999/02/22-rdf-syntax-ns#"
   xmlns:svg="http://www.w3.org/2000/svg"
   xmlns="http://www.w3.org/2000/svg"
   xmlns:sodipodi="http://sodipodi.sourceforge.net/DTD/sodipodi-0.dtd"
   xmlns:inkscape="http://www.inkscape.org/namespaces/inkscape"
   width="210mm"
   height="297mm"
   viewBox="0 0 210 297"
   version="1.1"
   id="svg1414"
   inkscape:version="0.92.4 (5da689c313, 2019-01-14)"
   sodipodi:docname="wuerfel-innen4.svg">
  <defs
     id="defs1408" />
  <sodipodi:namedview
     id="base"
     pagecolor="#ffffff"
     bordercolor="#666666"
     borderopacity="1.0"
     inkscape:pageopacity="0.0"
     inkscape:pageshadow="2"
     inkscape:zoom="0.7"
     inkscape:cx="552.9824"
     inkscape:cy="692.35286"
     inkscape:document-units="mm"
     inkscape:current-layer="layer1"
     showgrid="false"
     inkscape:window-width="1920"
     inkscape:window-height="986"
     inkscape:window-x="-11"
     inkscape:window-y="-11"
     inkscape:window-maximized="1" />
  <metadata
     id="metadata1411">
    <rdf:RDF>
      <cc:Work
         rdf:about="">
        <dc:format>image/svg+xml</dc:format>
        <dc:type
           rdf:resource="http://purl.org/dc/dcmitype/StillImage" />
        <dc:title />
      </cc:Work>
    </rdf:RDF>
  </metadata>
  <g
     inkscape:label="Ebene 1"
     inkscape:groupmode="layer"
     id="layer1">
    <rect
       style="fill:#f4eed7;fill-opacity:1;stroke-width:0.27806848"
       id="rect1382"
       width="210.34111"
       height="210.34111"
       x="0.4009099"
       y="-0.3373456"
       inkscape:export-xdpi="96"
       inkscape:export-ydpi="96" />
    <text
       xml:space="preserve"
       style="font-style:normal;font-weight:normal;font-size:16.93333244px;line-height:1.25;font-family:sans-serif;letter-spacing:0px;word-spacing:0px;fill:#333333;fill-opacity:1;stroke:none;stroke-width:0.26458332"
       x="53.59338"
       y="51.339966"
       id="text5696"
       inkscape:export-xdpi="96"
       inkscape:export-ydpi="96"><tspan
         sodipodi:role="line"
         id="tspan5694"
         x="53.59338"
         y="51.339966"
         style="fill:#333333;stroke-width:0.26458332">Gratuliere!</tspan></text>
    <text
       xml:space="preserve"
       style="font-style:normal;font-weight:normal;font-size:10.58333302px;line-height:1.25;font-family:sans-serif;letter-spacing:0px;word-spacing:0px;fill:#333333;fill-opacity:1;stroke:none;stroke-width:0.26458332"
       x="18.919155"
       y="75.321503"
       id="text6322"
       inkscape:export-xdpi="96"
       inkscape:export-ydpi="96"><tspan
         sodipodi:role="line"
         x="18.919155"
         y="75.321503"
         style="fill:#333333;stroke-width:0.26458332"
         id="tspan8685">Wenn du bis hier gekommen bist,</tspan><tspan
         sodipodi:role="line"
         x="18.919155"
         y="88.550667"
         style="fill:#333333;stroke-width:0.26458332"
         id="tspan830">kannst du OER.</tspan><tspan
         sodipodi:role="line"
         x="18.919155"
         y="101.77983"
         style="fill:#333333;stroke-width:0.26458332"
         id="tspan832" /><tspan
         sodipodi:role="line"
         x="18.919155"
         y="115.009"
         style="fill:#333333;stroke-width:0.26458332"
         id="tspan834">Gib den Würfel jemandem weiter, </tspan><tspan
         sodipodi:role="line"
         x="18.919155"
         y="128.23817"
         style="fill:#333333;stroke-width:0.26458332"
         id="tspan836">von dem du glaubst, dass er/sie </tspan><tspan
         sodipodi:role="line"
         x="18.919155"
         y="141.46733"
         style="fill:#333333;stroke-width:0.26458332"
         id="tspan838">es auch kann.</tspan><tspan
         sodipodi:role="line"
         x="18.919155"
         y="154.6965"
         style="fill:#333333;stroke-width:0.26458332"
         id="tspan8718" /><tspan
         sodipodi:role="line"
         x="18.919155"
         y="167.92567"
         style="fill:#333333;stroke-width:0.26458332"
         id="tspan8687">www.oer-wuerfel.de/...</tspan></text>
  </g>
</svg>
