<?xml version="1.0" encoding="UTF-8" standalone="no"?>
<!-- Created with Inkscape (http://www.inkscape.org/) -->

<svg
   xmlns:dc="http://purl.org/dc/elements/1.1/"
   xmlns:cc="http://creativecommons.org/ns#"
   xmlns:rdf="http://www.w3.org/1999/02/22-rdf-syntax-ns#"
   xmlns:svg="http://www.w3.org/2000/svg"
   xmlns="http://www.w3.org/2000/svg"
   xmlns:sodipodi="http://sodipodi.sourceforge.net/DTD/sodipodi-0.dtd"
   xmlns:inkscape="http://www.inkscape.org/namespaces/inkscape"
   width="210mm"
   height="297mm"
   viewBox="0 0 210 297"
   version="1.1"
   id="svg18591"
   inkscape:version="0.92.4 (5da689c313, 2019-01-14)"
   sodipodi:docname="wuerfel-icon.svg">
  <defs
     id="defs18585">
    <inkscape:perspective
       sodipodi:type="inkscape:persp3d"
       inkscape:vp_x="271.24534 : 307.70461 : 1"
       inkscape:vp_y="14.545719 : -2252.8684 : 0"
       inkscape:vp_z="-251.6421 : 304.32857 : 1"
       inkscape:persp3d-origin="9.0816052 : 417.53358 : 1"
       id="perspective19136" />
  </defs>
  <sodipodi:namedview
     id="base"
     pagecolor="#ffffff"
     bordercolor="#666666"
     borderopacity="1.0"
     inkscape:pageopacity="0.0"
     inkscape:pageshadow="2"
     inkscape:zoom="1.4"
     inkscape:cx="316.46885"
     inkscape:cy="637.70081"
     inkscape:document-units="mm"
     inkscape:current-layer="layer1"
     showgrid="false"
     inkscape:window-width="1920"
     inkscape:window-height="986"
     inkscape:window-x="-11"
     inkscape:window-y="-11"
     inkscape:window-maximized="1" />
  <metadata
     id="metadata18588">
    <rdf:RDF>
      <cc:Work
         rdf:about="">
        <dc:format>image/svg+xml</dc:format>
        <dc:type
           rdf:resource="http://purl.org/dc/dcmitype/StillImage" />
        <dc:title></dc:title>
      </cc:Work>
    </rdf:RDF>
  </metadata>
  <g
     inkscape:label="Ebene 1"
     inkscape:groupmode="layer"
     id="layer1">
    <g
       sodipodi:type="inkscape:box3d"
       id="g19138"
       style="fill:#f4eed7;fill-opacity:1"
       inkscape:perspectiveID="#perspective19136"
       inkscape:corner0="1.0886863 : 0.17275115 : 0 : 1"
       inkscape:corner7="0.58818606 : 0.12745114 : 0.25 : 1"
       inkscape:export-xdpi="96.449997"
       inkscape:export-ydpi="96.449997">
      <path
         sodipodi:type="inkscape:box3dside"
         id="path19140"
         style="fill:#353564;fill-rule:evenodd;stroke:none;stroke-width:2.36848927;stroke-linejoin:round"
         inkscape:box3dsidetype="6"
         d="m 146.9323,123.04293 -0.31547,-48.860839 -42.57293,-8.713295 0.28175,43.637724 z"
         points="146.61683,74.182091 104.0439,65.468796 104.32565,109.10652 146.9323,123.04293 " />
      <path
         sodipodi:type="inkscape:box3dside"
         id="path19150"
         style="fill:#e9e9ff;fill-rule:evenodd;stroke:none;stroke-width:2.36848927;stroke-linejoin:round"
         inkscape:box3dsidetype="11"
         d="M 104.32565,109.10652 58.876847,141.72863 58.518385,86.209245 104.0439,65.468796 Z"
         points="58.876847,141.72863 58.518385,86.209245 104.0439,65.468796 104.32565,109.10652 " />
      <path
         sodipodi:type="inkscape:box3dside"
         id="path19142"
         style="fill:#4d4d9f;fill-rule:evenodd;stroke:none;stroke-width:2.36848927;stroke-linejoin:round"
         inkscape:box3dsidetype="5"
         d="M 146.9323,123.04293 107.75635,165.19206 58.876847,141.72863 104.32565,109.10652 Z"
         points="107.75635,165.19206 58.876847,141.72863 104.32565,109.10652 146.9323,123.04293 " />
      <path
         sodipodi:type="inkscape:box3dside"
         id="path19148"
         style="fill:#afafde;fill-rule:evenodd;stroke:none;stroke-width:2.36848927;stroke-linejoin:round"
         inkscape:box3dsidetype="13"
         d="M 146.61683,74.182091 107.34146,100.93324 58.518385,86.209245 104.0439,65.468796 Z"
         points="107.34146,100.93324 58.518385,86.209245 104.0439,65.468796 146.61683,74.182091 " />
      <path
         sodipodi:type="inkscape:box3dside"
         id="path19146"
         style="fill:#d7d7ff;fill-rule:evenodd;stroke:none;stroke-width:2.36848927;stroke-linejoin:round"
         inkscape:box3dsidetype="14"
         d="M 107.75635,165.19206 107.34146,100.93324 58.518385,86.209245 58.876847,141.72863 Z"
         points="107.34146,100.93324 58.518385,86.209245 58.876847,141.72863 107.75635,165.19206 " />
      <path
         sodipodi:type="inkscape:box3dside"
         id="path19144"
         style="fill:#8686bf;fill-rule:evenodd;stroke:none;stroke-width:2.36848927;stroke-linejoin:round"
         inkscape:box3dsidetype="3"
         d="m 146.9323,123.04293 -39.17595,42.14913 -0.41489,-64.25882 39.27537,-26.751149 z"
         points="107.75635,165.19206 107.34146,100.93324 146.61683,74.182091 146.9323,123.04293 " />
    </g>
    <path
       style="fill:#4d4d4d;fill-opacity:1;stroke-width:0.25253814"
       d="m 405.29209,381.40894 c -0.0914,-0.0914 -0.2703,-0.18032 -0.39762,-0.19769 -0.12732,-0.0174 -0.28831,-0.06 -0.35776,-0.0947 -0.0695,-0.0347 -0.2115,-0.0872 -0.31567,-0.11651 -0.10417,-0.0294 -0.35987,-0.12747 -0.56821,-0.21803 -0.20835,-0.0906 -0.66291,-0.21436 -1.01015,-0.2751 -0.34724,-0.0607 -0.65976,-0.13309 -0.69448,-0.16077 -0.0347,-0.0277 -0.14837,-0.0744 -0.25254,-0.10372 -0.10417,-0.0293 -0.35987,-0.12747 -0.56821,-0.21803 -0.20835,-0.0906 -0.66292,-0.21435 -1.01016,-0.27509 -0.34724,-0.0607 -0.65975,-0.1331 -0.69448,-0.16078 -0.0347,-0.0277 -0.14836,-0.0744 -0.25253,-0.10371 -0.10418,-0.0294 -0.35987,-0.12747 -0.56821,-0.21803 -0.20835,-0.0906 -0.66292,-0.21435 -1.01016,-0.2751 -0.34724,-0.0607 -0.65975,-0.13309 -0.69448,-0.16077 -0.0347,-0.0277 -0.14836,-0.0744 -0.25254,-0.10372 -0.10417,-0.0294 -0.35986,-0.1255 -0.56821,-0.21367 -0.20834,-0.0882 -0.66291,-0.21769 -1.01015,-0.28784 -0.34724,-0.0702 -1.25638,-0.34532 -2.0203,-0.61148 -0.76393,-0.26617 -39.57273,-11.98997 -86.24178,-26.05289 -46.66904,-14.06293 -84.92797,-25.63824 -85.01984,-25.72292 -0.0919,-0.0847 38.376,-17.71153 85.48416,-39.17079 67.78285,-30.87724 85.83558,-39.00587 86.53507,-38.96429 0.48614,0.0289 1.22481,0.12113 1.6415,0.20497 0.41669,0.0838 0.92808,0.18632 1.13642,0.22775 0.20834,0.0414 0.54927,0.14122 0.75761,0.22175 0.40095,0.15498 2.56046,0.59733 4.04061,0.82767 0.48614,0.0757 1.13928,0.1901 1.45142,0.25431 0.31214,0.0642 0.88036,0.17674 1.26269,0.25004 0.75688,0.1451 1.60443,0.31361 2.5892,0.51478 0.34724,0.0709 0.8018,0.16287 1.01015,0.2043 0.20834,0.0414 0.54927,0.14122 0.75761,0.22175 0.40094,0.15497 2.56046,0.59732 4.04061,0.82767 0.48614,0.0756 1.13928,0.19009 1.45142,0.25431 0.31214,0.0642 0.85164,0.17358 1.19888,0.24303 l 1.26269,0.25253 c 0.34724,0.0695 0.94416,0.18746 1.3265,0.26225 0.38234,0.0748 0.86562,0.16987 1.07397,0.2113 0.20834,0.0414 0.54927,0.14122 0.75761,0.22175 0.40094,0.15497 2.56046,0.59732 4.04061,0.82767 0.48614,0.0756 1.11117,0.18701 1.38896,0.24745 0.27779,0.0605 0.78918,0.16673 1.13642,0.23618 l 1.26269,0.25253 c 0.34724,0.0695 0.91545,0.18095 1.26269,0.24777 0.34724,0.0668 1.3132,0.28997 2.14658,0.49587 0.83337,0.20591 1.9698,0.44252 2.52538,0.5258 0.55558,0.0833 1.23744,0.20107 1.51523,0.26175 0.27779,0.0607 0.78918,0.16713 1.13642,0.23658 l 1.26269,0.25254 1.26269,0.25254 c 0.34724,0.0694 0.91545,0.18094 1.26269,0.24776 0.34724,0.0668 1.3132,0.28997 2.14658,0.49588 0.83337,0.2059 1.96979,0.44251 2.52538,0.5258 1.0212,0.15308 1.85576,0.30695 2.77792,0.51219 0.60333,0.13427 1.49177,0.31291 2.52538,0.50777 1.35441,0.25535 1.51007,0.2915 1.89403,0.43991 0.40095,0.15498 2.56046,0.59733 4.04061,0.82767 0.48614,0.0756 1.11117,0.18701 1.38896,0.24746 0.2778,0.0604 0.84601,0.17296 1.26269,0.25003 0.41669,0.0771 0.9849,0.19071 1.2627,0.25254 0.27779,0.0618 0.846,0.17668 1.26269,0.25524 1.35441,0.25534 1.51007,0.29149 1.89403,0.4399 0.40094,0.15498 2.56046,0.59733 4.04061,0.82767 0.48614,0.0757 1.11117,0.18701 1.38896,0.24746 0.27779,0.0605 0.78918,0.16672 1.13642,0.23617 l 1.26269,0.25254 c 0.34724,0.0694 0.91546,0.18094 1.2627,0.24777 0.34724,0.0668 1.31319,0.28996 2.14657,0.49587 0.83338,0.2059 1.9698,0.44251 2.52538,0.5258 0.55558,0.0833 1.23744,0.20107 1.51523,0.26174 0.27779,0.0607 0.846,0.17338 1.26269,0.25045 0.41669,0.0771 0.9849,0.19071 1.26269,0.25254 0.53728,0.11957 1.3682,0.28805 2.39911,0.48644 0.34724,0.0668 1.3132,0.28997 2.14658,0.49587 0.83337,0.20591 1.96979,0.44252 2.52538,0.5258 0.55558,0.0833 1.23744,0.20107 1.51523,0.26174 0.27779,0.0607 0.846,0.17338 1.26269,0.25045 0.41669,0.0771 0.9849,0.19071 1.26269,0.25254 0.27779,0.0618 0.846,0.17668 1.26269,0.25524 1.35441,0.25534 1.51008,0.29149 1.89404,0.43991 0.40093,0.15497 2.56045,0.59732 4.04061,0.82766 0.92658,0.1442 1.80327,0.30868 2.65165,0.49749 0.60334,0.13428 1.49176,0.31292 2.52538,0.50778 1.35441,0.25534 1.51007,0.2915 1.89403,0.43991 0.40093,0.15497 2.56046,0.59732 4.04061,0.82767 0.48614,0.0756 1.11117,0.18701 1.38896,0.24745 0.2778,0.0605 0.84601,0.17297 1.26269,0.25004 1.69421,0.31336 2.16453,0.41458 5.17704,1.11415 1.18061,0.27416 2.60114,0.56512 3.15672,0.64657 0.99738,0.14622 1.79232,0.29277 2.77792,0.51212 0.53728,0.11958 1.3682,0.28806 2.39911,0.48644 0.34724,0.0668 1.3132,0.28997 2.14658,0.49588 0.83337,0.2059 1.9698,0.44251 2.52538,0.5258 0.55558,0.0833 1.26554,0.20415 1.57768,0.2686 0.31214,0.0644 0.85164,0.17399 1.19888,0.24344 l 1.26269,0.25254 c 0.34724,0.0694 0.94416,0.18745 1.3265,0.26224 0.38235,0.0748 0.86563,0.16987 1.07397,0.2113 0.20835,0.0414 0.54927,0.14122 0.75762,0.22175 0.40093,0.15498 2.56046,0.59732 4.04061,0.82767 0.48613,0.0756 1.13927,0.19009 1.45141,0.25431 0.31214,0.0642 0.85163,0.17358 1.19887,0.24303 l 1.26269,0.25254 c 0.34724,0.0695 0.94417,0.18745 1.32651,0.26224 0.38234,0.0748 0.86563,0.16987 1.07397,0.21131 0.20834,0.0414 0.54927,0.14121 0.75761,0.22174 0.45245,0.17488 3.00733,0.68639 3.90806,0.78243 0.35113,0.0374 0.67922,0.11523 0.72908,0.17288 0.0498,0.0577 -32.1277,22.03776 -71.50565,48.84468 -39.37795,26.80693 -72.76443,49.55329 -74.19217,50.54748 -1.42775,0.99419 -2.67066,1.73287 -2.76202,1.6415 z"
       id="path19174"
       inkscape:connector-curvature="0"
       transform="scale(0.26458333)"
       inkscape:export-xdpi="96.449997"
       inkscape:export-ydpi="96.449997" />
    <path
       style="fill:#666666;fill-opacity:1;stroke-width:0.35714287"
       d="m 406.28214,623.92425 c 0,-0.24731 -0.16072,-0.35032 -0.35715,-0.22892 -0.19642,0.1214 -0.35714,0.074 -0.35714,-0.10533 0,-0.3544 -6.78189,-3.52295 -7.22766,-3.37681 -0.14979,0.0491 -0.27234,-0.0809 -0.27234,-0.28894 0,-0.20802 -0.16071,-0.27889 -0.35714,-0.15749 -0.19643,0.1214 -0.35714,0.041 -0.35714,-0.17857 0,-0.21962 -0.16072,-0.29998 -0.35715,-0.17858 -0.19643,0.1214 -0.35714,0.074 -0.35714,-0.10532 0,-0.3544 -6.78189,-3.52296 -7.22766,-3.37682 -0.14979,0.0491 -0.27234,-0.0809 -0.27234,-0.28893 0,-0.20803 -0.16071,-0.2789 -0.35714,-0.1575 -0.19643,0.1214 -0.35715,0.0411 -0.35715,-0.17857 0,-0.21961 -0.16071,-0.29997 -0.35714,-0.17857 -0.19643,0.1214 -0.35714,0.074 -0.35714,-0.10533 0,-0.3544 -6.78189,-3.52295 -7.22766,-3.37681 -0.14979,0.0491 -0.27234,-0.0809 -0.27234,-0.28894 0,-0.20802 -0.16072,-0.27889 -0.35714,-0.15749 -0.19643,0.1214 -0.35715,0.041 -0.35715,-0.17857 0,-0.21962 -0.16071,-0.29997 -0.35714,-0.17857 -0.19643,0.1214 -0.35714,0.074 -0.35714,-0.10533 0,-0.3544 -6.7819,-3.52296 -7.22766,-3.37682 -0.14979,0.0491 -0.27234,-0.0809 -0.27234,-0.28893 0,-0.20802 -0.16072,-0.2789 -0.35715,-0.1575 -0.19642,0.1214 -0.35714,0.041 -0.35714,-0.17857 0,-0.21961 -0.16071,-0.29997 -0.35714,-0.17857 -0.19643,0.1214 -0.35714,0.074 -0.35714,-0.10532 0,-0.35441 -6.7819,-3.52296 -7.22766,-3.37682 -0.14979,0.0491 -0.27234,-0.0809 -0.27234,-0.28894 0,-0.20802 -0.16072,-0.27889 -0.35715,-0.15749 -0.19643,0.1214 -0.35714,0.041 -0.35714,-0.17857 0,-0.21962 -0.16071,-0.29997 -0.35714,-0.17857 -0.19643,0.1214 -0.35715,0.074 -0.35715,-0.10533 0,-0.3544 -6.78189,-3.52296 -7.22765,-3.37682 -0.14979,0.0491 -0.27235,-0.0809 -0.27235,-0.28893 0,-0.20802 -0.16071,-0.27889 -0.35714,-0.15749 -0.19643,0.1214 -0.35714,0.041 -0.35714,-0.17858 0,-0.21961 -0.16072,-0.29997 -0.35714,-0.17857 -0.19643,0.1214 -0.35715,0.074 -0.35715,-0.10532 0,-0.35441 -6.78189,-3.52296 -7.22765,-3.37682 -0.14979,0.0491 -0.27235,-0.0809 -0.27235,-0.28894 0,-0.20802 -0.16071,-0.27889 -0.35714,-0.15749 -0.19643,0.1214 -0.35714,0.041 -0.35714,-0.17857 0,-0.21961 -0.16072,-0.29997 -0.35715,-0.17857 -0.19642,0.1214 -0.35714,0.074 -0.35714,-0.10533 0,-0.3544 -6.78189,-3.52295 -7.22766,-3.37681 -0.14979,0.0491 -0.27234,-0.0809 -0.27234,-0.28894 0,-0.20802 -0.16071,-0.27889 -0.35714,-0.15749 -0.19643,0.1214 -0.35714,0.041 -0.35714,-0.17857 0,-0.21962 -0.16072,-0.29998 -0.35715,-0.17858 -0.19643,0.1214 -0.35714,0.074 -0.35714,-0.10532 0,-0.3544 -6.78189,-3.52296 -7.22766,-3.37682 -0.14979,0.0491 -0.27234,-0.0809 -0.27234,-0.28893 0,-0.20803 -0.16071,-0.2789 -0.35714,-0.1575 -0.19643,0.1214 -0.35715,0.0411 -0.35715,-0.17857 0,-0.21961 -0.16071,-0.29997 -0.35714,-0.17857 -0.19643,0.1214 -0.35714,0.074 -0.35714,-0.10533 0,-0.3544 -6.78189,-3.52295 -7.22766,-3.37681 -0.14979,0.0491 -0.27234,-0.0809 -0.27234,-0.28894 0,-0.20802 -0.16072,-0.27889 -0.35714,-0.15749 -0.19643,0.1214 -0.35715,0.041 -0.35715,-0.17857 0,-0.21962 -0.16071,-0.29997 -0.35714,-0.17857 -0.19643,0.1214 -0.35714,0.074 -0.35714,-0.10533 0,-0.3544 -6.7819,-3.52296 -7.22766,-3.37682 -0.14979,0.0491 -0.27234,-0.0809 -0.27234,-0.28893 0,-0.20802 -0.16072,-0.2789 -0.35715,-0.1575 -0.19642,0.1214 -0.35714,0.041 -0.35714,-0.17857 0,-0.21961 -0.16071,-0.29997 -0.35714,-0.17857 -0.19643,0.1214 -0.35714,0.074 -0.35714,-0.10532 0,-0.35441 -6.7819,-3.52296 -7.22766,-3.37682 -0.14979,0.0491 -0.27234,-0.0809 -0.27234,-0.28894 0,-0.20802 -0.16072,-0.27889 -0.35715,-0.15749 -0.19643,0.1214 -0.35714,0.041 -0.35714,-0.17857 0,-0.21962 -0.16071,-0.29997 -0.35714,-0.17857 -0.19643,0.1214 -0.35715,0.074 -0.35715,-0.10533 0,-0.3544 -6.78189,-3.52296 -7.22765,-3.37682 -0.14979,0.0491 -0.27235,-0.0809 -0.27235,-0.28893 0,-0.20802 -0.16071,-0.27889 -0.35714,-0.15749 -0.19643,0.1214 -0.35714,0.041 -0.35714,-0.17858 0,-0.21961 -0.16072,-0.29997 -0.35714,-0.17857 -0.19643,0.1214 -0.35715,0.074 -0.35715,-0.10532 0,-0.35441 -6.78189,-3.52296 -7.22765,-3.37682 -0.14979,0.0491 -0.27235,-0.0809 -0.27235,-0.28894 0,-0.20802 -0.16071,-0.27889 -0.35714,-0.15749 -0.19643,0.1214 -0.35714,0.041 -0.35714,-0.17857 0,-0.21961 -0.16072,-0.29997 -0.35715,-0.17857 -0.19642,0.1214 -0.35714,0.074 -0.35714,-0.10533 0,-0.3544 -6.78189,-3.52295 -7.22766,-3.37681 -0.14979,0.0491 -0.27234,-0.0809 -0.27234,-0.28894 0,-0.20802 -0.16071,-0.27889 -0.35714,-0.15749 -0.19643,0.1214 -0.35714,0.041 -0.35714,-0.17857 0,-0.21962 -0.16072,-0.29998 -0.35715,-0.17858 -0.19643,0.1214 -0.35714,0.074 -0.35714,-0.10532 0,-0.3544 -6.78189,-3.52296 -7.22766,-3.37682 -0.14979,0.0491 -0.27234,-0.0809 -0.27234,-0.28893 0,-0.20803 -0.16071,-0.2789 -0.35714,-0.1575 -0.19643,0.1214 -0.35715,0.0411 -0.35715,-0.17857 0,-0.21961 -0.16071,-0.29997 -0.35714,-0.17857 -0.19643,0.1214 -0.35714,0.074 -0.35714,-0.10533 0,-0.3544 -6.78189,-3.52295 -7.22766,-3.37681 -0.14979,0.0491 -0.27234,-0.0809 -0.27234,-0.28894 0,-0.20802 -0.16072,-0.27889 -0.35714,-0.15749 -0.19643,0.1214 -0.35715,0.041 -0.35715,-0.17857 0,-0.21962 -0.16071,-0.29997 -0.35714,-0.17857 -0.19643,0.1214 -0.35714,0.074 -0.35714,-0.10533 0,-0.3544 -6.7819,-3.52296 -7.22766,-3.37682 -0.14979,0.0491 -0.27234,-0.0809 -0.27234,-0.28893 0,-0.20802 -0.16072,-0.2789 -0.35715,-0.1575 -0.19642,0.1214 -0.35714,0.041 -0.35714,-0.17857 0,-0.21961 -0.16071,-0.29997 -0.35714,-0.17857 -0.19643,0.1214 -0.35714,0.0768 -0.35714,-0.0991 0,-0.35028 -7.50726,-3.88469 -7.9443,-3.74016 -0.14849,0.0491 -0.26999,-0.0809 -0.26999,-0.28894 0,-0.20802 -0.16071,-0.27889 -0.35714,-0.15749 -0.19643,0.1214 -0.35715,0.0768 -0.35715,-0.0991 0,-0.35029 -7.50725,-3.8847 -7.94429,-3.74017 -0.1485,0.0491 -0.26999,-0.0809 -0.26999,-0.28893 0,-0.20803 -0.16072,-0.2789 -0.35714,-0.1575 -0.19643,0.1214 -0.35715,0.0681 -0.35715,-0.1185 0,-0.18657 -1.04464,-0.79432 -2.32143,-1.35055 l -2.32142,-1.01132 0.009,-10.90267 c 0.005,-5.99647 -0.26162,-53.05105 -0.59289,-104.56574 -0.33128,-51.51468 -0.50946,-93.75592 -0.39596,-93.86943 0.11351,-0.1135 10.30441,2.85155 22.64646,6.589 12.34206,3.73744 51.6901,15.6332 87.4401,26.43501 35.75,10.80181 67.00893,20.26084 69.46428,21.02005 l 4.46429,1.3804 0.23237,22.30402 c 0.1278,12.26721 0.51246,66.71043 0.8548,120.98493 0.46702,74.04061 0.52047,98.78288 0.21406,99.08928 -0.3064,0.30641 -0.40837,0.2961 -0.40837,-0.0413 z"
       id="path19178"
       inkscape:connector-curvature="0"
       transform="scale(0.26458333)"
       inkscape:export-xdpi="96.449997"
       inkscape:export-ydpi="96.449997" />
    <path
       style="fill:#333333;fill-opacity:1;stroke-width:0.35714287"
       d="m 407.12045,595.67671 c -0.12038,-15.70953 -0.29997,-35.23242 -0.39909,-43.3842 -0.26514,-21.80411 -0.71293,-111.27329 -0.71675,-143.20664 l -0.003,-27.67093 70.26382,-47.86479 c 38.64511,-26.32563 70.58891,-48.14603 70.98623,-48.48978 0.39732,-0.34375 0.88127,-0.625 1.07546,-0.625 0.19418,0 0.35306,-0.16072 0.35306,-0.35715 0,-0.19643 0.21076,-0.35714 0.46837,-0.35714 0.2576,0 0.85651,-0.36161 1.3309,-0.80357 0.47439,-0.44197 0.99271,-0.80357 1.1518,-0.80357 0.15909,0 0.44166,-0.24107 0.62791,-0.53572 0.18626,-0.29464 0.34622,-0.375 0.35548,-0.17857 0.009,0.19643 0.23735,0.0663 0.50689,-0.28923 0.26954,-0.3555 0.58103,-0.4992 0.6922,-0.31933 0.31739,0.51355 0.551,20.72934 0.75817,65.60856 0.10518,22.78572 0.26449,47.69643 0.35402,55.35714 0.0895,7.66072 0.20747,25.04182 0.26209,38.62467 l 0.0993,24.69609 -71.96429,77.43507 c -39.58035,42.58928 -72.86859,78.40071 -73.97385,79.58096 l -2.00957,2.1459 z"
       id="path19180"
       inkscape:connector-curvature="0"
       transform="scale(0.26458333)"
       inkscape:export-xdpi="96.449997"
       inkscape:export-ydpi="96.449997" />
    <text
       xml:space="preserve"
       style="font-style:normal;font-weight:normal;font-size:29.80560684px;line-height:1.25;font-family:sans-serif;letter-spacing:0px;word-spacing:0px;fill:#e9ddaf;fill-opacity:1;stroke:none;stroke-width:0.31047505"
       x="136.13376"
       y="8.4948654"
       id="text19184"
       transform="matrix(0.68723293,0.56064438,-1.1399816,0.52511412,0,0)"
       inkscape:export-xdpi="96.449997"
       inkscape:export-ydpi="96.449997"><tspan
         sodipodi:role="line"
         id="tspan19182"
         x="136.13376"
         y="8.4948654"
         style="fill:#e9ddaf;stroke-width:0.31047505">O</tspan></text>
    <text
       xml:space="preserve"
       style="font-style:normal;font-weight:normal;font-size:47.97503281px;line-height:1.25;font-family:sans-serif;letter-spacing:0px;word-spacing:0px;fill:#000000;fill-opacity:1;stroke:none;stroke-width:0.49973994"
       x="70.709717"
       y="109.24825"
       id="text19206"
       transform="matrix(0.96567799,0.31497461,0.03051335,1.0454944,0,0)"
       inkscape:export-xdpi="96.449997"
       inkscape:export-ydpi="96.449997"><tspan
         sodipodi:role="line"
         id="tspan19204"
         x="70.709717"
         y="109.24825"
         style="fill:#e9ddaf;stroke-width:0.49973994">E</tspan></text>
    <text
       xml:space="preserve"
       style="font-style:normal;font-weight:normal;font-size:47.82918167px;line-height:1.25;font-family:sans-serif;letter-spacing:0px;word-spacing:0px;fill:#000000;fill-opacity:1;stroke:none;stroke-width:1.19572949"
       x="115.91978"
       y="233.21638"
       id="text19210"
       transform="matrix(0.95187586,-0.83497404,0,1.0505572,0,0)"
       inkscape:export-xdpi="96.449997"
       inkscape:export-ydpi="96.449997"><tspan
         sodipodi:role="line"
         id="tspan19208"
         x="115.91978"
         y="233.21638"
         style="fill:#e9ddaf;stroke-width:1.19572949">R</tspan></text>
  </g>
</svg>
